{
  "api": "0",
  "authors": [
    "Patrick Spek <p.spek@tyil.work>"
  ],
  "depends": [
    
  ],
  "description": "Fold strings to a certain length",
  "license": "AGPL-3.0",
  "meta-version": 0,
  "name": "String::Fold",
  "perl": "6.c",
  "provides": {
    "String::Fold": "lib/String/Fold.pm6"
  },
  "resources": [
    
  ],
  "source-url": "https://gitlab.com/tyil/perl6-string-fold",
  "tags": [
    
  ],
  "version": "0.2.0"
}